[2020-03-31 10:01:11,065] INFO [Controller id=0] Processing automatic preferred replica leader election (kafka.controller.KafkaController)
[2020-03-31 10:01:11,072] TRACE [Controller id=0] Checking need to trigger auto leader balancing (kafka.controller.KafkaController)
[2020-03-31 10:01:11,073] DEBUG [Controller id=0] Preferred replicas by broker Map(0 -> Map(alper-0 -> Vector(0))) (kafka.controller.KafkaController)
[2020-03-31 10:01:11,073] DEBUG [Controller id=0] Topics not in preferred replica for broker 0 Map() (kafka.controller.KafkaController)
[2020-03-31 10:01:11,073] TRACE [Controller id=0] Leader imbalance ratio for broker 0 is 0.0 (kafka.controller.KafkaController)
[2020-03-31 10:01:13,040] DEBUG preRegister called. Server=com.sun.jmx.mbeanserver.JmxMBeanServer@66d3c617, name=log4j:logger=kafka.controller (kafka.controller)
[2020-03-31 10:01:13,515] INFO [Controller id=0] Shutting down broker 0 (kafka.controller.KafkaController)
[2020-03-31 10:01:13,516] DEBUG [Controller id=0] All shutting down brokers: 0 (kafka.controller.KafkaController)
[2020-03-31 10:01:13,516] DEBUG [Controller id=0] Live brokers:  (kafka.controller.KafkaController)
[2020-03-31 10:01:13,521] TRACE [Controller id=0] All leaders = alper-0 -> (Leader:0,ISR:0,LeaderEpoch:0,ControllerEpoch:1) (kafka.controller.KafkaController)
[2020-03-31 10:01:14,519] INFO [ControllerEventThread controllerId=0] Shutting down (kafka.controller.ControllerEventManager$ControllerEventThread)
[2020-03-31 10:01:14,521] INFO [ControllerEventThread controllerId=0] Stopped (kafka.controller.ControllerEventManager$ControllerEventThread)
[2020-03-31 10:01:14,521] INFO [ControllerEventThread controllerId=0] Shutdown completed (kafka.controller.ControllerEventManager$ControllerEventThread)
[2020-03-31 10:01:14,521] DEBUG [Controller id=0] Resigning (kafka.controller.KafkaController)
[2020-03-31 10:01:14,522] DEBUG [Controller id=0] Unregister BrokerModifications handler for Set(0) (kafka.controller.KafkaController)
[2020-03-31 10:01:14,525] INFO [PartitionStateMachine controllerId=0] Stopped partition state machine (kafka.controller.ZkPartitionStateMachine)
[2020-03-31 10:01:14,526] INFO [ReplicaStateMachine controllerId=0] Stopped replica state machine (kafka.controller.ZkReplicaStateMachine)
[2020-03-31 10:01:14,528] INFO [RequestSendThread controllerId=0] Shutting down (kafka.controller.RequestSendThread)
[2020-03-31 10:01:14,528] INFO [RequestSendThread controllerId=0] Stopped (kafka.controller.RequestSendThread)
[2020-03-31 10:01:14,528] INFO [RequestSendThread controllerId=0] Shutdown completed (kafka.controller.RequestSendThread)
[2020-03-31 10:01:14,532] INFO [Controller id=0] Resigned (kafka.controller.KafkaController)
[2020-03-31 10:01:32,699] INFO [ControllerEventThread controllerId=0] Starting (kafka.controller.ControllerEventManager$ControllerEventThread)
[2020-03-31 10:01:32,738] INFO [Controller id=0] 0 successfully elected as the controller. Epoch incremented to 6 and epoch zk version is now 6 (kafka.controller.KafkaController)
[2020-03-31 10:01:32,738] INFO [Controller id=0] Registering handlers (kafka.controller.KafkaController)
[2020-03-31 10:01:32,744] INFO [Controller id=0] Deleting log dir event notifications (kafka.controller.KafkaController)
[2020-03-31 10:01:32,751] INFO [Controller id=0] Deleting isr change notifications (kafka.controller.KafkaController)
[2020-03-31 10:01:32,756] INFO [Controller id=0] Initializing controller context (kafka.controller.KafkaController)
[2020-03-31 10:01:32,783] INFO [Controller id=0] Initialized broker epochs cache: Map(0 -> 86) (kafka.controller.KafkaController)
[2020-03-31 10:01:32,801] DEBUG [Controller id=0] Register BrokerModifications handler for Set(0) (kafka.controller.KafkaController)
[2020-03-31 10:01:32,821] DEBUG [Channel manager on controller 0]: Controller 0 trying to connect to broker 0 (kafka.controller.ControllerChannelManager)
[2020-03-31 10:01:32,836] INFO [RequestSendThread controllerId=0] Starting (kafka.controller.RequestSendThread)
[2020-03-31 10:01:32,836] INFO [Controller id=0] Currently active brokers in the cluster: Set(0) (kafka.controller.KafkaController)
[2020-03-31 10:01:32,837] INFO [Controller id=0] Currently shutting brokers in the cluster: Set() (kafka.controller.KafkaController)
[2020-03-31 10:01:32,837] INFO [Controller id=0] Current list of topics in the cluster: Set(alper) (kafka.controller.KafkaController)
[2020-03-31 10:01:32,838] INFO [Controller id=0] Fetching topic deletions in progress (kafka.controller.KafkaController)
[2020-03-31 10:01:32,846] INFO [Controller id=0] List of topics to be deleted:  (kafka.controller.KafkaController)
[2020-03-31 10:01:32,846] INFO [Controller id=0] List of topics ineligible for deletion:  (kafka.controller.KafkaController)
[2020-03-31 10:01:32,846] INFO [Controller id=0] Initializing topic deletion manager (kafka.controller.KafkaController)
[2020-03-31 10:01:32,847] INFO [Topic Deletion Manager 0] Initializing manager with initial deletions: Set(), initial ineligible deletions: Set() (kafka.controller.TopicDeletionManager)
[2020-03-31 10:01:32,847] INFO [Controller id=0] Sending update metadata request (kafka.controller.KafkaController)
[2020-03-31 10:01:32,862] INFO [ReplicaStateMachine controllerId=0] Initializing replica state (kafka.controller.ZkReplicaStateMachine)
[2020-03-31 10:01:32,877] INFO [ReplicaStateMachine controllerId=0] Triggering online replica state changes (kafka.controller.ZkReplicaStateMachine)
[2020-03-31 10:01:32,877] INFO [RequestSendThread controllerId=0] Controller 0 connected to TRIS2LT066.tr.asseco-see.local:9092 (id: 0 rack: null) for sending state change requests (kafka.controller.RequestSendThread)
[2020-03-31 10:01:32,906] INFO [ReplicaStateMachine controllerId=0] Triggering offline replica state changes (kafka.controller.ZkReplicaStateMachine)
[2020-03-31 10:01:32,907] DEBUG [ReplicaStateMachine controllerId=0] Started replica state machine with initial state -> Map([Topic=alper,Partition=0,Replica=0] -> OnlineReplica) (kafka.controller.ZkReplicaStateMachine)
[2020-03-31 10:01:32,907] INFO [PartitionStateMachine controllerId=0] Initializing partition state (kafka.controller.ZkPartitionStateMachine)
[2020-03-31 10:01:32,923] INFO [PartitionStateMachine controllerId=0] Triggering online partition state changes (kafka.controller.ZkPartitionStateMachine)
[2020-03-31 10:01:32,930] DEBUG [PartitionStateMachine controllerId=0] Started partition state machine with initial state -> Map(alper-0 -> OnlinePartition) (kafka.controller.ZkPartitionStateMachine)
[2020-03-31 10:01:32,931] INFO [Controller id=0] Ready to serve as the new controller with epoch 6 (kafka.controller.KafkaController)
[2020-03-31 10:01:32,941] INFO [Controller id=0] Partitions undergoing preferred replica election:  (kafka.controller.KafkaController)
[2020-03-31 10:01:32,942] INFO [Controller id=0] Partitions that completed preferred replica election:  (kafka.controller.KafkaController)
[2020-03-31 10:01:32,948] INFO [Controller id=0] Skipping preferred replica election for partitions due to topic deletion:  (kafka.controller.KafkaController)
[2020-03-31 10:01:32,950] INFO [Controller id=0] Resuming preferred replica election for partitions:  (kafka.controller.KafkaController)
[2020-03-31 10:01:32,953] INFO [Controller id=0] Starting replica leader election (PREFERRED) for partitions  triggered by ZkTriggered (kafka.controller.KafkaController)
[2020-03-31 10:01:32,974] INFO [Controller id=0] Starting the controller scheduler (kafka.controller.KafkaController)
[2020-03-31 10:01:37,977] INFO [Controller id=0] Processing automatic preferred replica leader election (kafka.controller.KafkaController)
[2020-03-31 10:01:37,977] TRACE [Controller id=0] Checking need to trigger auto leader balancing (kafka.controller.KafkaController)
[2020-03-31 10:01:37,980] DEBUG [Controller id=0] Preferred replicas by broker Map(0 -> Map(alper-0 -> Vector(0))) (kafka.controller.KafkaController)
[2020-03-31 10:01:37,982] DEBUG [Controller id=0] Topics not in preferred replica for broker 0 Map() (kafka.controller.KafkaController)
[2020-03-31 10:01:37,984] TRACE [Controller id=0] Leader imbalance ratio for broker 0 is 0.0 (kafka.controller.KafkaController)
[2020-03-31 10:02:58,801] INFO [Controller id=0] New topics: [Set(TEST)], deleted topics: [Set()], new partition replica assignment [Map(TEST-0 -> ReplicaAssignment(replicas=0, addingReplicas=, removingReplicas=))] (kafka.controller.KafkaController)
[2020-03-31 10:02:58,802] INFO [Controller id=0] New partition creation callback for TEST-0 (kafka.controller.KafkaController)
[2020-03-31 10:06:37,985] INFO [Controller id=0] Processing automatic preferred replica leader election (kafka.controller.KafkaController)
[2020-03-31 10:06:37,985] TRACE [Controller id=0] Checking need to trigger auto leader balancing (kafka.controller.KafkaController)
[2020-03-31 10:06:37,986] DEBUG [Controller id=0] Preferred replicas by broker Map(0 -> Map(TEST-0 -> Vector(0), alper-0 -> Vector(0))) (kafka.controller.KafkaController)
[2020-03-31 10:06:37,986] DEBUG [Controller id=0] Topics not in preferred replica for broker 0 Map() (kafka.controller.KafkaController)
[2020-03-31 10:06:37,986] TRACE [Controller id=0] Leader imbalance ratio for broker 0 is 0.0 (kafka.controller.KafkaController)
[2020-03-31 10:11:37,987] INFO [Controller id=0] Processing automatic preferred replica leader election (kafka.controller.KafkaController)
[2020-03-31 10:11:37,987] TRACE [Controller id=0] Checking need to trigger auto leader balancing (kafka.controller.KafkaController)
[2020-03-31 10:11:37,988] DEBUG [Controller id=0] Preferred replicas by broker Map(0 -> Map(TEST-0 -> Vector(0), alper-0 -> Vector(0))) (kafka.controller.KafkaController)
[2020-03-31 10:11:37,988] DEBUG [Controller id=0] Topics not in preferred replica for broker 0 Map() (kafka.controller.KafkaController)
[2020-03-31 10:11:37,988] TRACE [Controller id=0] Leader imbalance ratio for broker 0 is 0.0 (kafka.controller.KafkaController)
[2020-03-31 10:16:37,990] INFO [Controller id=0] Processing automatic preferred replica leader election (kafka.controller.KafkaController)
[2020-03-31 10:16:37,990] TRACE [Controller id=0] Checking need to trigger auto leader balancing (kafka.controller.KafkaController)
[2020-03-31 10:16:37,991] DEBUG [Controller id=0] Preferred replicas by broker Map(0 -> Map(TEST-0 -> Vector(0), alper-0 -> Vector(0))) (kafka.controller.KafkaController)
[2020-03-31 10:16:37,991] DEBUG [Controller id=0] Topics not in preferred replica for broker 0 Map() (kafka.controller.KafkaController)
[2020-03-31 10:16:37,991] TRACE [Controller id=0] Leader imbalance ratio for broker 0 is 0.0 (kafka.controller.KafkaController)
[2020-03-31 10:21:37,994] INFO [Controller id=0] Processing automatic preferred replica leader election (kafka.controller.KafkaController)
[2020-03-31 10:21:37,994] TRACE [Controller id=0] Checking need to trigger auto leader balancing (kafka.controller.KafkaController)
[2020-03-31 10:21:37,995] DEBUG [Controller id=0] Preferred replicas by broker Map(0 -> Map(TEST-0 -> Vector(0), alper-0 -> Vector(0))) (kafka.controller.KafkaController)
[2020-03-31 10:21:37,995] DEBUG [Controller id=0] Topics not in preferred replica for broker 0 Map() (kafka.controller.KafkaController)
[2020-03-31 10:21:37,995] TRACE [Controller id=0] Leader imbalance ratio for broker 0 is 0.0 (kafka.controller.KafkaController)
[2020-03-31 10:26:38,008] INFO [Controller id=0] Processing automatic preferred replica leader election (kafka.controller.KafkaController)
[2020-03-31 10:26:38,008] TRACE [Controller id=0] Checking need to trigger auto leader balancing (kafka.controller.KafkaController)
[2020-03-31 10:26:38,008] DEBUG [Controller id=0] Preferred replicas by broker Map(0 -> Map(TEST-0 -> Vector(0), alper-0 -> Vector(0))) (kafka.controller.KafkaController)
[2020-03-31 10:26:38,008] DEBUG [Controller id=0] Topics not in preferred replica for broker 0 Map() (kafka.controller.KafkaController)
[2020-03-31 10:26:38,008] TRACE [Controller id=0] Leader imbalance ratio for broker 0 is 0.0 (kafka.controller.KafkaController)
[2020-03-31 10:45:50,610] DEBUG preRegister called. Server=com.sun.jmx.mbeanserver.JmxMBeanServer@66d3c617, name=log4j:logger=kafka.controller (kafka.controller)
[2020-03-31 10:46:58,403] DEBUG preRegister called. Server=com.sun.jmx.mbeanserver.JmxMBeanServer@66d3c617, name=log4j:logger=kafka.controller (kafka.controller)
[2020-03-31 10:48:44,207] INFO [ControllerEventThread controllerId=0] Starting (kafka.controller.ControllerEventManager$ControllerEventThread)
[2020-03-31 10:48:44,242] INFO [Controller id=0] 0 successfully elected as the controller. Epoch incremented to 7 and epoch zk version is now 7 (kafka.controller.KafkaController)
[2020-03-31 10:48:44,243] INFO [Controller id=0] Registering handlers (kafka.controller.KafkaController)
[2020-03-31 10:48:44,250] INFO [Controller id=0] Deleting log dir event notifications (kafka.controller.KafkaController)
[2020-03-31 10:48:44,256] INFO [Controller id=0] Deleting isr change notifications (kafka.controller.KafkaController)
[2020-03-31 10:48:44,261] INFO [Controller id=0] Initializing controller context (kafka.controller.KafkaController)
[2020-03-31 10:48:44,291] INFO [Controller id=0] Initialized broker epochs cache: Map(0 -> 113) (kafka.controller.KafkaController)
[2020-03-31 10:48:44,311] DEBUG [Controller id=0] Register BrokerModifications handler for Set(0) (kafka.controller.KafkaController)
[2020-03-31 10:48:44,330] DEBUG [Channel manager on controller 0]: Controller 0 trying to connect to broker 0 (kafka.controller.ControllerChannelManager)
[2020-03-31 10:48:44,343] INFO [RequestSendThread controllerId=0] Starting (kafka.controller.RequestSendThread)
[2020-03-31 10:48:44,343] INFO [Controller id=0] Currently active brokers in the cluster: Set(0) (kafka.controller.KafkaController)
[2020-03-31 10:48:44,344] INFO [Controller id=0] Currently shutting brokers in the cluster: Set() (kafka.controller.KafkaController)
[2020-03-31 10:48:44,344] INFO [Controller id=0] Current list of topics in the cluster: Set(alper, TEST) (kafka.controller.KafkaController)
[2020-03-31 10:48:44,345] INFO [Controller id=0] Fetching topic deletions in progress (kafka.controller.KafkaController)
[2020-03-31 10:48:44,356] INFO [Controller id=0] List of topics to be deleted:  (kafka.controller.KafkaController)
[2020-03-31 10:48:44,357] INFO [Controller id=0] List of topics ineligible for deletion:  (kafka.controller.KafkaController)
[2020-03-31 10:48:44,358] INFO [Controller id=0] Initializing topic deletion manager (kafka.controller.KafkaController)
[2020-03-31 10:48:44,359] INFO [Topic Deletion Manager 0] Initializing manager with initial deletions: Set(), initial ineligible deletions: Set() (kafka.controller.TopicDeletionManager)
[2020-03-31 10:48:44,360] INFO [Controller id=0] Sending update metadata request (kafka.controller.KafkaController)
[2020-03-31 10:48:44,374] INFO [ReplicaStateMachine controllerId=0] Initializing replica state (kafka.controller.ZkReplicaStateMachine)
[2020-03-31 10:48:44,381] INFO [ReplicaStateMachine controllerId=0] Triggering online replica state changes (kafka.controller.ZkReplicaStateMachine)
[2020-03-31 10:48:44,386] INFO [RequestSendThread controllerId=0] Controller 0 connected to TRIS2LT066.tr.asseco-see.local:9092 (id: 0 rack: null) for sending state change requests (kafka.controller.RequestSendThread)
[2020-03-31 10:48:44,422] INFO [ReplicaStateMachine controllerId=0] Triggering offline replica state changes (kafka.controller.ZkReplicaStateMachine)
[2020-03-31 10:48:44,423] DEBUG [ReplicaStateMachine controllerId=0] Started replica state machine with initial state -> Map([Topic=TEST,Partition=0,Replica=0] -> OnlineReplica, [Topic=alper,Partition=0,Replica=0] -> OnlineReplica) (kafka.controller.ZkReplicaStateMachine)
[2020-03-31 10:48:44,424] INFO [PartitionStateMachine controllerId=0] Initializing partition state (kafka.controller.ZkPartitionStateMachine)
[2020-03-31 10:48:44,428] INFO [PartitionStateMachine controllerId=0] Triggering online partition state changes (kafka.controller.ZkPartitionStateMachine)
[2020-03-31 10:48:44,432] DEBUG [PartitionStateMachine controllerId=0] Started partition state machine with initial state -> Map(TEST-0 -> OnlinePartition, alper-0 -> OnlinePartition) (kafka.controller.ZkPartitionStateMachine)
[2020-03-31 10:48:44,433] INFO [Controller id=0] Ready to serve as the new controller with epoch 7 (kafka.controller.KafkaController)
[2020-03-31 10:48:44,449] INFO [Controller id=0] Partitions undergoing preferred replica election:  (kafka.controller.KafkaController)
[2020-03-31 10:48:44,450] INFO [Controller id=0] Partitions that completed preferred replica election:  (kafka.controller.KafkaController)
[2020-03-31 10:48:44,450] INFO [Controller id=0] Skipping preferred replica election for partitions due to topic deletion:  (kafka.controller.KafkaController)
[2020-03-31 10:48:44,451] INFO [Controller id=0] Resuming preferred replica election for partitions:  (kafka.controller.KafkaController)
[2020-03-31 10:48:44,454] INFO [Controller id=0] Starting replica leader election (PREFERRED) for partitions  triggered by ZkTriggered (kafka.controller.KafkaController)
[2020-03-31 10:48:44,470] INFO [Controller id=0] Starting the controller scheduler (kafka.controller.KafkaController)
[2020-03-31 10:48:49,473] INFO [Controller id=0] Processing automatic preferred replica leader election (kafka.controller.KafkaController)
[2020-03-31 10:48:49,474] TRACE [Controller id=0] Checking need to trigger auto leader balancing (kafka.controller.KafkaController)
[2020-03-31 10:48:49,477] DEBUG [Controller id=0] Preferred replicas by broker Map(0 -> Map(TEST-0 -> Vector(0), alper-0 -> Vector(0))) (kafka.controller.KafkaController)
[2020-03-31 10:48:49,479] DEBUG [Controller id=0] Topics not in preferred replica for broker 0 Map() (kafka.controller.KafkaController)
[2020-03-31 10:48:49,480] TRACE [Controller id=0] Leader imbalance ratio for broker 0 is 0.0 (kafka.controller.KafkaController)
[2020-03-31 10:53:49,482] INFO [Controller id=0] Processing automatic preferred replica leader election (kafka.controller.KafkaController)
[2020-03-31 10:53:49,482] TRACE [Controller id=0] Checking need to trigger auto leader balancing (kafka.controller.KafkaController)
[2020-03-31 10:53:49,483] DEBUG [Controller id=0] Preferred replicas by broker Map(0 -> Map(TEST-0 -> Vector(0), alper-0 -> Vector(0))) (kafka.controller.KafkaController)
[2020-03-31 10:53:49,483] DEBUG [Controller id=0] Topics not in preferred replica for broker 0 Map() (kafka.controller.KafkaController)
[2020-03-31 10:53:49,484] TRACE [Controller id=0] Leader imbalance ratio for broker 0 is 0.0 (kafka.controller.KafkaController)
[2020-03-31 10:54:54,943] INFO [Controller id=0] New topics: [Set(__consumer_offsets)], deleted topics: [Set()], new partition replica assignment [Map(__consumer_offsets-0 -> ReplicaAssignment(replicas=0, addingReplicas=, removingReplicas=))] (kafka.controller.KafkaController)
[2020-03-31 10:54:54,944] INFO [Controller id=0] New partition creation callback for __consumer_offsets-0 (kafka.controller.KafkaController)
[2020-03-31 10:58:49,485] INFO [Controller id=0] Processing automatic preferred replica leader election (kafka.controller.KafkaController)
[2020-03-31 10:58:49,485] TRACE [Controller id=0] Checking need to trigger auto leader balancing (kafka.controller.KafkaController)
[2020-03-31 10:58:49,486] DEBUG [Controller id=0] Preferred replicas by broker Map(0 -> Map(__consumer_offsets-0 -> Vector(0), TEST-0 -> Vector(0), alper-0 -> Vector(0))) (kafka.controller.KafkaController)
[2020-03-31 10:58:49,487] DEBUG [Controller id=0] Topics not in preferred replica for broker 0 Map() (kafka.controller.KafkaController)
[2020-03-31 10:58:49,487] TRACE [Controller id=0] Leader imbalance ratio for broker 0 is 0.0 (kafka.controller.KafkaController)
[2020-03-31 11:03:49,489] INFO [Controller id=0] Processing automatic preferred replica leader election (kafka.controller.KafkaController)
[2020-03-31 11:03:49,495] TRACE [Controller id=0] Checking need to trigger auto leader balancing (kafka.controller.KafkaController)
[2020-03-31 11:03:49,496] DEBUG [Controller id=0] Preferred replicas by broker Map(0 -> Map(__consumer_offsets-0 -> Vector(0), TEST-0 -> Vector(0), alper-0 -> Vector(0))) (kafka.controller.KafkaController)
[2020-03-31 11:03:49,496] DEBUG [Controller id=0] Topics not in preferred replica for broker 0 Map() (kafka.controller.KafkaController)
[2020-03-31 11:03:49,496] TRACE [Controller id=0] Leader imbalance ratio for broker 0 is 0.0 (kafka.controller.KafkaController)
[2020-03-31 11:08:49,497] INFO [Controller id=0] Processing automatic preferred replica leader election (kafka.controller.KafkaController)
[2020-03-31 11:08:49,498] TRACE [Controller id=0] Checking need to trigger auto leader balancing (kafka.controller.KafkaController)
[2020-03-31 11:08:49,499] DEBUG [Controller id=0] Preferred replicas by broker Map(0 -> Map(__consumer_offsets-0 -> Vector(0), TEST-0 -> Vector(0), alper-0 -> Vector(0))) (kafka.controller.KafkaController)
[2020-03-31 11:08:49,499] DEBUG [Controller id=0] Topics not in preferred replica for broker 0 Map() (kafka.controller.KafkaController)
[2020-03-31 11:08:49,499] TRACE [Controller id=0] Leader imbalance ratio for broker 0 is 0.0 (kafka.controller.KafkaController)
[2020-03-31 11:13:49,500] INFO [Controller id=0] Processing automatic preferred replica leader election (kafka.controller.KafkaController)
[2020-03-31 11:13:49,500] TRACE [Controller id=0] Checking need to trigger auto leader balancing (kafka.controller.KafkaController)
[2020-03-31 11:13:49,501] DEBUG [Controller id=0] Preferred replicas by broker Map(0 -> Map(__consumer_offsets-0 -> Vector(0), TEST-0 -> Vector(0), alper-0 -> Vector(0))) (kafka.controller.KafkaController)
[2020-03-31 11:13:49,502] DEBUG [Controller id=0] Topics not in preferred replica for broker 0 Map() (kafka.controller.KafkaController)
[2020-03-31 11:13:49,502] TRACE [Controller id=0] Leader imbalance ratio for broker 0 is 0.0 (kafka.controller.KafkaController)
[2020-03-31 11:18:49,504] INFO [Controller id=0] Processing automatic preferred replica leader election (kafka.controller.KafkaController)
[2020-03-31 11:18:49,504] TRACE [Controller id=0] Checking need to trigger auto leader balancing (kafka.controller.KafkaController)
[2020-03-31 11:18:49,504] DEBUG [Controller id=0] Preferred replicas by broker Map(0 -> Map(__consumer_offsets-0 -> Vector(0), TEST-0 -> Vector(0), alper-0 -> Vector(0))) (kafka.controller.KafkaController)
[2020-03-31 11:18:49,505] DEBUG [Controller id=0] Topics not in preferred replica for broker 0 Map() (kafka.controller.KafkaController)
[2020-03-31 11:18:49,505] TRACE [Controller id=0] Leader imbalance ratio for broker 0 is 0.0 (kafka.controller.KafkaController)
[2020-03-31 11:23:49,507] INFO [Controller id=0] Processing automatic preferred replica leader election (kafka.controller.KafkaController)
[2020-03-31 11:23:49,507] TRACE [Controller id=0] Checking need to trigger auto leader balancing (kafka.controller.KafkaController)
[2020-03-31 11:23:49,508] DEBUG [Controller id=0] Preferred replicas by broker Map(0 -> Map(__consumer_offsets-0 -> Vector(0), TEST-0 -> Vector(0), alper-0 -> Vector(0))) (kafka.controller.KafkaController)
[2020-03-31 11:23:49,508] DEBUG [Controller id=0] Topics not in preferred replica for broker 0 Map() (kafka.controller.KafkaController)
[2020-03-31 11:23:49,508] TRACE [Controller id=0] Leader imbalance ratio for broker 0 is 0.0 (kafka.controller.KafkaController)
[2020-03-31 11:28:49,509] INFO [Controller id=0] Processing automatic preferred replica leader election (kafka.controller.KafkaController)
[2020-03-31 11:28:49,510] TRACE [Controller id=0] Checking need to trigger auto leader balancing (kafka.controller.KafkaController)
[2020-03-31 11:28:49,511] DEBUG [Controller id=0] Preferred replicas by broker Map(0 -> Map(__consumer_offsets-0 -> Vector(0), TEST-0 -> Vector(0), alper-0 -> Vector(0))) (kafka.controller.KafkaController)
[2020-03-31 11:28:49,511] DEBUG [Controller id=0] Topics not in preferred replica for broker 0 Map() (kafka.controller.KafkaController)
[2020-03-31 11:28:49,511] TRACE [Controller id=0] Leader imbalance ratio for broker 0 is 0.0 (kafka.controller.KafkaController)
[2020-03-31 11:33:49,513] INFO [Controller id=0] Processing automatic preferred replica leader election (kafka.controller.KafkaController)
[2020-03-31 11:33:49,513] TRACE [Controller id=0] Checking need to trigger auto leader balancing (kafka.controller.KafkaController)
[2020-03-31 11:33:49,513] DEBUG [Controller id=0] Preferred replicas by broker Map(0 -> Map(__consumer_offsets-0 -> Vector(0), TEST-0 -> Vector(0), alper-0 -> Vector(0))) (kafka.controller.KafkaController)
[2020-03-31 11:33:49,513] DEBUG [Controller id=0] Topics not in preferred replica for broker 0 Map() (kafka.controller.KafkaController)
[2020-03-31 11:33:49,514] TRACE [Controller id=0] Leader imbalance ratio for broker 0 is 0.0 (kafka.controller.KafkaController)
[2020-03-31 11:38:49,515] INFO [Controller id=0] Processing automatic preferred replica leader election (kafka.controller.KafkaController)
[2020-03-31 11:38:49,515] TRACE [Controller id=0] Checking need to trigger auto leader balancing (kafka.controller.KafkaController)
[2020-03-31 11:38:49,516] DEBUG [Controller id=0] Preferred replicas by broker Map(0 -> Map(__consumer_offsets-0 -> Vector(0), TEST-0 -> Vector(0), alper-0 -> Vector(0))) (kafka.controller.KafkaController)
[2020-03-31 11:38:49,516] DEBUG [Controller id=0] Topics not in preferred replica for broker 0 Map() (kafka.controller.KafkaController)
[2020-03-31 11:38:49,516] TRACE [Controller id=0] Leader imbalance ratio for broker 0 is 0.0 (kafka.controller.KafkaController)
[2020-03-31 11:43:49,517] INFO [Controller id=0] Processing automatic preferred replica leader election (kafka.controller.KafkaController)
[2020-03-31 11:43:49,517] TRACE [Controller id=0] Checking need to trigger auto leader balancing (kafka.controller.KafkaController)
[2020-03-31 11:43:49,518] DEBUG [Controller id=0] Preferred replicas by broker Map(0 -> Map(__consumer_offsets-0 -> Vector(0), TEST-0 -> Vector(0), alper-0 -> Vector(0))) (kafka.controller.KafkaController)
[2020-03-31 11:43:49,518] DEBUG [Controller id=0] Topics not in preferred replica for broker 0 Map() (kafka.controller.KafkaController)
[2020-03-31 11:43:49,518] TRACE [Controller id=0] Leader imbalance ratio for broker 0 is 0.0 (kafka.controller.KafkaController)
[2020-03-31 11:48:49,520] INFO [Controller id=0] Processing automatic preferred replica leader election (kafka.controller.KafkaController)
[2020-03-31 11:48:49,520] TRACE [Controller id=0] Checking need to trigger auto leader balancing (kafka.controller.KafkaController)
[2020-03-31 11:48:49,521] DEBUG [Controller id=0] Preferred replicas by broker Map(0 -> Map(__consumer_offsets-0 -> Vector(0), TEST-0 -> Vector(0), alper-0 -> Vector(0))) (kafka.controller.KafkaController)
[2020-03-31 11:48:49,521] DEBUG [Controller id=0] Topics not in preferred replica for broker 0 Map() (kafka.controller.KafkaController)
[2020-03-31 11:48:49,521] TRACE [Controller id=0] Leader imbalance ratio for broker 0 is 0.0 (kafka.controller.KafkaController)
[2020-03-31 11:53:49,523] INFO [Controller id=0] Processing automatic preferred replica leader election (kafka.controller.KafkaController)
[2020-03-31 11:53:49,523] TRACE [Controller id=0] Checking need to trigger auto leader balancing (kafka.controller.KafkaController)
[2020-03-31 11:53:49,524] DEBUG [Controller id=0] Preferred replicas by broker Map(0 -> Map(__consumer_offsets-0 -> Vector(0), TEST-0 -> Vector(0), alper-0 -> Vector(0))) (kafka.controller.KafkaController)
[2020-03-31 11:53:49,524] DEBUG [Controller id=0] Topics not in preferred replica for broker 0 Map() (kafka.controller.KafkaController)
[2020-03-31 11:53:49,524] TRACE [Controller id=0] Leader imbalance ratio for broker 0 is 0.0 (kafka.controller.KafkaController)
[2020-03-31 11:58:49,526] INFO [Controller id=0] Processing automatic preferred replica leader election (kafka.controller.KafkaController)
[2020-03-31 11:58:49,526] TRACE [Controller id=0] Checking need to trigger auto leader balancing (kafka.controller.KafkaController)
[2020-03-31 11:58:49,526] DEBUG [Controller id=0] Preferred replicas by broker Map(0 -> Map(__consumer_offsets-0 -> Vector(0), TEST-0 -> Vector(0), alper-0 -> Vector(0))) (kafka.controller.KafkaController)
[2020-03-31 11:58:49,527] DEBUG [Controller id=0] Topics not in preferred replica for broker 0 Map() (kafka.controller.KafkaController)
[2020-03-31 11:58:49,527] TRACE [Controller id=0] Leader imbalance ratio for broker 0 is 0.0 (kafka.controller.KafkaController)
[2020-03-31 12:03:49,528] INFO [Controller id=0] Processing automatic preferred replica leader election (kafka.controller.KafkaController)
[2020-03-31 12:03:49,533] TRACE [Controller id=0] Checking need to trigger auto leader balancing (kafka.controller.KafkaController)
[2020-03-31 12:03:49,533] DEBUG [Controller id=0] Preferred replicas by broker Map(0 -> Map(__consumer_offsets-0 -> Vector(0), TEST-0 -> Vector(0), alper-0 -> Vector(0))) (kafka.controller.KafkaController)
[2020-03-31 12:03:49,533] DEBUG [Controller id=0] Topics not in preferred replica for broker 0 Map() (kafka.controller.KafkaController)
[2020-03-31 12:03:49,534] TRACE [Controller id=0] Leader imbalance ratio for broker 0 is 0.0 (kafka.controller.KafkaController)
[2020-03-31 12:08:49,535] INFO [Controller id=0] Processing automatic preferred replica leader election (kafka.controller.KafkaController)
[2020-03-31 12:08:49,535] TRACE [Controller id=0] Checking need to trigger auto leader balancing (kafka.controller.KafkaController)
[2020-03-31 12:08:49,535] DEBUG [Controller id=0] Preferred replicas by broker Map(0 -> Map(__consumer_offsets-0 -> Vector(0), TEST-0 -> Vector(0), alper-0 -> Vector(0))) (kafka.controller.KafkaController)
[2020-03-31 12:08:49,536] DEBUG [Controller id=0] Topics not in preferred replica for broker 0 Map() (kafka.controller.KafkaController)
[2020-03-31 12:08:49,536] TRACE [Controller id=0] Leader imbalance ratio for broker 0 is 0.0 (kafka.controller.KafkaController)
[2020-03-31 12:13:49,537] INFO [Controller id=0] Processing automatic preferred replica leader election (kafka.controller.KafkaController)
[2020-03-31 12:13:49,537] TRACE [Controller id=0] Checking need to trigger auto leader balancing (kafka.controller.KafkaController)
[2020-03-31 12:13:49,538] DEBUG [Controller id=0] Preferred replicas by broker Map(0 -> Map(__consumer_offsets-0 -> Vector(0), TEST-0 -> Vector(0), alper-0 -> Vector(0))) (kafka.controller.KafkaController)
[2020-03-31 12:13:49,538] DEBUG [Controller id=0] Topics not in preferred replica for broker 0 Map() (kafka.controller.KafkaController)
[2020-03-31 12:13:49,538] TRACE [Controller id=0] Leader imbalance ratio for broker 0 is 0.0 (kafka.controller.KafkaController)
[2020-03-31 12:18:49,540] INFO [Controller id=0] Processing automatic preferred replica leader election (kafka.controller.KafkaController)
[2020-03-31 12:18:49,540] TRACE [Controller id=0] Checking need to trigger auto leader balancing (kafka.controller.KafkaController)
[2020-03-31 12:18:49,540] DEBUG [Controller id=0] Preferred replicas by broker Map(0 -> Map(__consumer_offsets-0 -> Vector(0), TEST-0 -> Vector(0), alper-0 -> Vector(0))) (kafka.controller.KafkaController)
[2020-03-31 12:18:49,540] DEBUG [Controller id=0] Topics not in preferred replica for broker 0 Map() (kafka.controller.KafkaController)
[2020-03-31 12:18:49,540] TRACE [Controller id=0] Leader imbalance ratio for broker 0 is 0.0 (kafka.controller.KafkaController)
[2020-03-31 12:23:49,542] INFO [Controller id=0] Processing automatic preferred replica leader election (kafka.controller.KafkaController)
[2020-03-31 12:23:49,542] TRACE [Controller id=0] Checking need to trigger auto leader balancing (kafka.controller.KafkaController)
[2020-03-31 12:23:49,543] DEBUG [Controller id=0] Preferred replicas by broker Map(0 -> Map(__consumer_offsets-0 -> Vector(0), TEST-0 -> Vector(0), alper-0 -> Vector(0))) (kafka.controller.KafkaController)
[2020-03-31 12:23:49,543] DEBUG [Controller id=0] Topics not in preferred replica for broker 0 Map() (kafka.controller.KafkaController)
[2020-03-31 12:23:49,543] TRACE [Controller id=0] Leader imbalance ratio for broker 0 is 0.0 (kafka.controller.KafkaController)
[2020-03-31 12:28:49,545] INFO [Controller id=0] Processing automatic preferred replica leader election (kafka.controller.KafkaController)
[2020-03-31 12:28:49,545] TRACE [Controller id=0] Checking need to trigger auto leader balancing (kafka.controller.KafkaController)
[2020-03-31 12:28:49,545] DEBUG [Controller id=0] Preferred replicas by broker Map(0 -> Map(__consumer_offsets-0 -> Vector(0), TEST-0 -> Vector(0), alper-0 -> Vector(0))) (kafka.controller.KafkaController)
[2020-03-31 12:28:49,545] DEBUG [Controller id=0] Topics not in preferred replica for broker 0 Map() (kafka.controller.KafkaController)
[2020-03-31 12:28:49,545] TRACE [Controller id=0] Leader imbalance ratio for broker 0 is 0.0 (kafka.controller.KafkaController)
[2020-03-31 12:33:49,547] INFO [Controller id=0] Processing automatic preferred replica leader election (kafka.controller.KafkaController)
[2020-03-31 12:33:49,547] TRACE [Controller id=0] Checking need to trigger auto leader balancing (kafka.controller.KafkaController)
[2020-03-31 12:33:49,547] DEBUG [Controller id=0] Preferred replicas by broker Map(0 -> Map(__consumer_offsets-0 -> Vector(0), TEST-0 -> Vector(0), alper-0 -> Vector(0))) (kafka.controller.KafkaController)
[2020-03-31 12:33:49,547] DEBUG [Controller id=0] Topics not in preferred replica for broker 0 Map() (kafka.controller.KafkaController)
[2020-03-31 12:33:49,547] TRACE [Controller id=0] Leader imbalance ratio for broker 0 is 0.0 (kafka.controller.KafkaController)
[2020-03-31 12:38:49,550] INFO [Controller id=0] Processing automatic preferred replica leader election (kafka.controller.KafkaController)
[2020-03-31 12:38:49,550] TRACE [Controller id=0] Checking need to trigger auto leader balancing (kafka.controller.KafkaController)
[2020-03-31 12:38:49,550] DEBUG [Controller id=0] Preferred replicas by broker Map(0 -> Map(__consumer_offsets-0 -> Vector(0), TEST-0 -> Vector(0), alper-0 -> Vector(0))) (kafka.controller.KafkaController)
[2020-03-31 12:38:49,550] DEBUG [Controller id=0] Topics not in preferred replica for broker 0 Map() (kafka.controller.KafkaController)
[2020-03-31 12:38:49,550] TRACE [Controller id=0] Leader imbalance ratio for broker 0 is 0.0 (kafka.controller.KafkaController)
[2020-03-31 12:43:49,551] INFO [Controller id=0] Processing automatic preferred replica leader election (kafka.controller.KafkaController)
[2020-03-31 12:43:49,552] TRACE [Controller id=0] Checking need to trigger auto leader balancing (kafka.controller.KafkaController)
[2020-03-31 12:43:49,553] DEBUG [Controller id=0] Preferred replicas by broker Map(0 -> Map(__consumer_offsets-0 -> Vector(0), TEST-0 -> Vector(0), alper-0 -> Vector(0))) (kafka.controller.KafkaController)
[2020-03-31 12:43:49,553] DEBUG [Controller id=0] Topics not in preferred replica for broker 0 Map() (kafka.controller.KafkaController)
[2020-03-31 12:43:49,553] TRACE [Controller id=0] Leader imbalance ratio for broker 0 is 0.0 (kafka.controller.KafkaController)
[2020-03-31 12:48:49,555] INFO [Controller id=0] Processing automatic preferred replica leader election (kafka.controller.KafkaController)
[2020-03-31 12:48:49,555] TRACE [Controller id=0] Checking need to trigger auto leader balancing (kafka.controller.KafkaController)
[2020-03-31 12:48:49,556] DEBUG [Controller id=0] Preferred replicas by broker Map(0 -> Map(__consumer_offsets-0 -> Vector(0), TEST-0 -> Vector(0), alper-0 -> Vector(0))) (kafka.controller.KafkaController)
[2020-03-31 12:48:49,556] DEBUG [Controller id=0] Topics not in preferred replica for broker 0 Map() (kafka.controller.KafkaController)
[2020-03-31 12:48:49,556] TRACE [Controller id=0] Leader imbalance ratio for broker 0 is 0.0 (kafka.controller.KafkaController)
[2020-03-31 12:53:49,557] INFO [Controller id=0] Processing automatic preferred replica leader election (kafka.controller.KafkaController)
[2020-03-31 12:53:49,557] TRACE [Controller id=0] Checking need to trigger auto leader balancing (kafka.controller.KafkaController)
[2020-03-31 12:53:49,558] DEBUG [Controller id=0] Preferred replicas by broker Map(0 -> Map(__consumer_offsets-0 -> Vector(0), TEST-0 -> Vector(0), alper-0 -> Vector(0))) (kafka.controller.KafkaController)
[2020-03-31 12:53:49,559] DEBUG [Controller id=0] Topics not in preferred replica for broker 0 Map() (kafka.controller.KafkaController)
[2020-03-31 12:53:49,559] TRACE [Controller id=0] Leader imbalance ratio for broker 0 is 0.0 (kafka.controller.KafkaController)
[2020-03-31 12:58:49,561] INFO [Controller id=0] Processing automatic preferred replica leader election (kafka.controller.KafkaController)
[2020-03-31 12:58:49,562] TRACE [Controller id=0] Checking need to trigger auto leader balancing (kafka.controller.KafkaController)
[2020-03-31 12:58:49,563] DEBUG [Controller id=0] Preferred replicas by broker Map(0 -> Map(__consumer_offsets-0 -> Vector(0), TEST-0 -> Vector(0), alper-0 -> Vector(0))) (kafka.controller.KafkaController)
[2020-03-31 12:58:49,563] DEBUG [Controller id=0] Topics not in preferred replica for broker 0 Map() (kafka.controller.KafkaController)
[2020-03-31 12:58:49,563] TRACE [Controller id=0] Leader imbalance ratio for broker 0 is 0.0 (kafka.controller.KafkaController)
